2.000000000000000000e+01 7.600661717483269797e+00
2.010000000000000142e+01 7.611151933984196205e+00
2.020000000000000284e+01 7.621458912339472924e+00
2.030000000000000426e+01 7.631584420591597251e+00
2.040000000000000568e+01 7.641530190178355220e+00
2.050000000000000711e+01 7.651297916762468176e+00
2.060000000000000853e+01 7.660889261039089071e+00
2.070000000000000995e+01 7.670305849521758645e+00
2.080000000000001137e+01 7.679549275307515188e+00
2.090000000000001279e+01 7.688621098821777800e+00
2.100000000000001421e+01 7.697522848543626672e+00
2.110000000000001563e+01 7.706256021712053261e+00
2.120000000000001705e+01 7.714822085013768316e+00
2.130000000000001847e+01 7.723222475253126440e+00
2.140000000000001990e+01 7.731458600004669002e+00
2.150000000000002132e+01 7.739531838248841389e+00
2.160000000000002274e+01 7.747443540991352684e+00
2.170000000000002416e+01 7.755195031866675137e+00
2.180000000000002558e+01 7.762787607726141736e+00
2.190000000000002700e+01 7.770222539211110835e+00
2.200000000000002842e+01 7.777501071311599290e+00
2.210000000000002984e+01 7.784624423910845081e+00
2.220000000000003126e+01 7.791593792316170664e+00
2.230000000000003268e+01 7.798410347776576934e+00
2.240000000000003411e+01 7.805075237987422199e+00
2.250000000000003553e+01 7.811589587582567162e+00
2.260000000000003695e+01 7.817954498614334113e+00
2.270000000000003837e+01 7.824171051021662215e+00
2.280000000000003979e+01 7.830240303086723586e+00
2.290000000000004121e+01 7.836163291880409609e+00
2.300000000000004263e+01 7.841941033696922858e+00
2.310000000000004405e+01 7.847574524477848534e+00
2.320000000000004547e+01 7.853064740225927487e+00
2.330000000000004690e+01 7.858412637408903834e+00
2.340000000000004832e+01 7.863619153353620383e+00
2.350000000000004974e+01 7.868685206630731344e+00
2.360000000000005116e+01 7.873611697430213496e+00
2.370000000000005258e+01 7.878399507927975165e+00
2.380000000000005400e+01 7.883049502643776130e+00
2.390000000000005542e+01 7.887562528790725835e+00
2.400000000000005684e+01 7.891939416616547298e+00
2.410000000000005826e+01 7.896180979736876715e+00
2.420000000000005969e+01 7.900288015460772861e+00
2.430000000000006111e+01 7.904261305108666313e+00
2.440000000000006253e+01 7.908101614322950113e+00
2.450000000000006395e+01 7.911809693371395724e+00
2.460000000000006537e+01 7.915386277443603014e+00
2.470000000000006679e+01 7.918832086940647663e+00
2.480000000000006821e+01 7.922147827758130312e+00
2.490000000000006963e+01 7.925334191562770414e+00
2.500000000000007105e+01 7.928391856062736665e+00
2.510000000000007248e+01 7.931321485271883631e+00
2.520000000000007390e+01 7.934123729768020716e+00
2.530000000000007532e+01 7.936799226945402630e+00
2.540000000000007674e+01 7.939348601261562166e+00
2.550000000000007816e+01 7.941772464478666471e+00
2.560000000000007958e+01 7.944071415899487398e+00
2.570000000000008100e+01 7.946246042598178683e+00
2.580000000000008242e+01 7.948296919645946090e+00
2.590000000000008384e+01 7.950224610331773967e+00
2.600000000000008527e+01 7.952029666378303219e+00
2.610000000000008669e+01 7.953712628153018827e+00
2.620000000000008811e+01 7.955274024874823269e+00
2.630000000000008953e+01 7.956714374816153068e+00
2.640000000000009095e+01 7.958034185500716617e+00
2.650000000000009237e+01 7.959233953896974079e+00
2.660000000000009379e+01 7.960314166607478370e+00
2.670000000000009521e+01 7.961275300054166060e+00
2.680000000000009663e+01 7.962117820659680767e+00
2.690000000000009805e+01 7.962842185024865849e+00
2.700000000000009948e+01 7.963448840102495652e+00
2.710000000000010090e+01 7.963938223367337699e+00
2.720000000000010232e+01 7.964310762982631076e+00
2.730000000000010374e+01 7.964566877963094704e+00
2.740000000000010516e+01 7.964706978334509913e+00
2.750000000000010658e+01 7.964731465289994539e+00
2.760000000000010800e+01 7.964640731343024527e+00
2.770000000000010942e+01 7.964435160477296272e+00
2.780000000000011084e+01 7.964115128293490997e+00
2.790000000000011227e+01 7.963681002153029098e+00
2.800000000000011369e+01 7.963133141318877506e+00
2.810000000000011511e+01 7.962471897093483797e+00
2.820000000000011653e+01 7.961697612953888559e+00
2.830000000000011795e+01 7.960810624684122594e+00
2.840000000000011937e+01 7.959811260504894292e+00
2.850000000000012079e+01 7.958699841200696845e+00
2.860000000000012221e+01 7.957476680244319311e+00
2.870000000000012363e+01 7.956142083918908092e+00
2.880000000000012506e+01 7.954696351437553048e+00
2.890000000000012648e+01 7.953139775060513728e+00
2.900000000000012790e+01 7.951472640210111464e+00
2.910000000000012932e+01 7.949695225583350400e+00
2.920000000000013074e+01 7.947807803262320725e+00
2.930000000000013216e+01 7.945810638822413452e+00
2.940000000000013358e+01 7.943703991438443524e+00
2.950000000000013500e+01 7.941488113988671493e+00
2.960000000000013642e+01 7.939163253156809930e+00
2.970000000000013785e+01 7.936729649532060726e+00
2.980000000000013927e+01 7.934187537707186877e+00
2.990000000000014069e+01 7.931537146374714631e+00
3.000000000000014211e+01 7.928778698421284687e+00
3.010000000000014353e+01 7.925912411020169301e+00
3.020000000000014495e+01 7.922938495722048557e+00
3.030000000000014637e+01 7.919857158544039599e+00
3.040000000000014779e+01 7.916668600057028549e+00
3.050000000000014921e+01 7.913373015471364624e+00
3.060000000000015064e+01 7.909970594720920900e+00
3.070000000000015206e+01 7.906461522545568776e+00
3.080000000000015348e+01 7.902845978572118568e+00
3.090000000000015490e+01 7.899124137393723544e+00
3.100000000000015632e+01 7.895296168647817581e+00
3.110000000000015774e+01 7.891362237092590881e+00
3.120000000000015916e+01 7.887322502682057035e+00
3.130000000000016058e+01 7.883177120639709656e+00
3.140000000000016200e+01 7.878926241530849417e+00
3.150000000000016342e+01 7.874570011333546837e+00
3.160000000000016485e+01 7.870108571508329653e+00
3.170000000000016627e+01 7.865542059066586766e+00
3.180000000000016769e+01 7.860870606637704761e+00
3.190000000000016911e+01 7.856094342535019592e+00
3.200000000000017053e+01 7.851213390820540816e+00
3.210000000000017195e+01 7.846227871368520290e+00
3.220000000000017337e+01 7.841137899927864474e+00
3.230000000000017479e+01 7.835943588183438280e+00
3.240000000000017621e+01 7.830645043816249817e+00
3.250000000000017764e+01 7.825242370562584426e+00
3.260000000000017906e+01 7.819735668272049800e+00
3.270000000000018048e+01 7.814125032964626349e+00
3.280000000000018190e+01 7.808410556886676623e+00
3.290000000000018332e+01 7.802592328565978619e+00
3.300000000000018474e+01 7.796670432865785649e+00
3.310000000000018616e+01 7.790644951037930532e+00
3.320000000000018758e+01 7.784515960775006960e+00
3.330000000000018900e+01 7.778283536261637821e+00
3.340000000000019043e+01 7.771947748224832253e+00
3.350000000000019185e+01 7.765508663983490045e+00
3.360000000000019327e+01 7.758966347497037397e+00
3.370000000000019469e+01 7.752320859413216247e+00
3.380000000000019611e+01 7.745572257115052928e+00
3.390000000000019753e+01 7.738720594767027450e+00
3.400000000000019895e+01 7.731765923360437220e+00
3.410000000000020037e+01 7.724708290757988038e+00
3.420000000000020179e+01 7.717547741737627476e+00
3.430000000000020322e+01 7.710284318035639295e+00
3.440000000000020464e+01 7.702918058388983802e+00
3.450000000000020606e+01 7.695448998576943644e+00
3.460000000000020748e+01 7.687877171462057291e+00
3.470000000000020890e+01 7.680202607030365058e+00
3.480000000000021032e+01 7.672425332430973910e+00
3.490000000000021174e+01 7.664545372014966773e+00
3.500000000000021316e+01 7.656562747373663491e+00
3.510000000000021458e+01 7.648477477376226297e+00
3.520000000000021600e+01 7.640289578206670207e+00
3.530000000000021743e+01 7.631999063400230376e+00
3.540000000000021885e+01 7.623605943879146807e+00
3.550000000000022027e+01 7.615110227987848646e+00
3.560000000000022169e+01 7.606511921527578934e+00
3.570000000000022311e+01 7.597811027790410954e+00
3.580000000000022453e+01 7.589007547592756531e+00
3.590000000000022595e+01 7.580101479308296142e+00
3.600000000000022737e+01 7.571092818900381438e+00
3.610000000000022879e+01 7.561981559953911081e+00
3.620000000000023022e+01 7.552767693706688767e+00
3.630000000000023164e+01 7.543451209080288322e+00
3.640000000000023306e+01 7.534032092710390316e+00
3.650000000000023448e+01 7.524510328976668383e+00
3.660000000000023590e+01 7.514885900032168387e+00
3.670000000000023732e+01 7.505158785832229285e+00
3.680000000000023874e+01 7.495328964162949248e+00
3.690000000000024016e+01 7.485396410669171274e+00
3.700000000000024158e+01 7.475361098882066457e+00
3.710000000000024301e+01 7.465223000246242968e+00
3.720000000000024443e+01 7.454982084146447363e+00
3.730000000000024585e+01 7.444638317933835125e+00
3.740000000000024727e+01 7.434191666951840638e+00
3.750000000000024869e+01 7.423642094561622606e+00
3.760000000000025011e+01 7.412989562167133784e+00
3.770000000000025153e+01 7.402234029239775026e+00
3.780000000000025295e+01 7.391375453342693191e+00
3.790000000000025437e+01 7.380413790154668696e+00
3.800000000000025580e+01 7.369348993493676225e+00
3.810000000000025722e+01 7.358181015340028885e+00
3.820000000000025864e+01 7.346909805859218601e+00
3.830000000000026006e+01 7.335535313424350612e+00
3.840000000000026148e+01 7.324057484638298199e+00
3.850000000000026290e+01 7.312476264355454170e+00
3.860000000000026432e+01 7.300791595703188364e+00
3.870000000000026574e+01 7.289003420102974751e+00
3.880000000000026716e+01 7.277111677291184577e+00
3.890000000000026859e+01 7.265116305339569536e+00
3.900000000000027001e+01 7.253017240675443844e+00
3.910000000000027143e+01 7.240814418101550132e+00
3.920000000000027285e+01 7.228507770815627786e+00
3.930000000000027427e+01 7.216097230429694420e+00
3.940000000000027569e+01 7.203582726989036011e+00
3.950000000000027711e+01 7.190964188990905726e+00
3.960000000000027853e+01 7.178241543402945624e+00
3.970000000000027995e+01 7.165414715681357016e+00
3.980000000000028137e+01 7.152483629788753738e+00
3.990000000000028280e+01 7.139448208211796931e+00
4.000000000000028422e+01 7.126308371978551826e+00
4.010000000000028564e+01 7.113064040675577182e+00
4.020000000000028706e+01 7.099715132464779366e+00
4.030000000000028848e+01 7.086261564100013288e+00
4.040000000000028990e+01 7.072703250943443543e+00
4.050000000000029132e+01 7.059040106981650631e+00
4.060000000000029274e+01 7.045272044841530246e+00
4.070000000000029416e+01 7.031398975805928764e+00
4.080000000000029559e+01 7.017420809829089556e+00
4.090000000000029701e+01 7.003337455551831958e+00
4.100000000000029843e+01 6.989148820316549049e+00
4.110000000000029985e+01 6.974854810181959408e+00
4.120000000000030127e+01 6.960455329937676794e+00
4.130000000000030269e+01 6.945950283118540902e+00
4.140000000000030411e+01 6.931339572018760720e+00
4.150000000000030553e+01 6.916623097705848267e+00
4.160000000000030695e+01 6.901800760034360493e+00
4.170000000000030838e+01 6.886872457659438673e+00
4.180000000000030980e+01 6.871838088050151505e+00
4.190000000000031122e+01 6.856697547502669465e+00
4.200000000000031264e+01 6.841450731153223330e+00
4.210000000000031406e+01 6.826097532990901939e+00
4.220000000000031548e+01 6.810637845870268769e+00
4.230000000000031690e+01 6.795071561523783110e+00
4.240000000000031832e+01 6.779398570574064919e+00
4.250000000000031974e+01 6.763618762545981156e+00
4.260000000000032117e+01 6.747732025878570461e+00
4.270000000000032259e+01 6.731738247936779551e+00
4.280000000000032401e+01 6.715637315023065490e+00
4.290000000000032543e+01 6.699429112388828322e+00
4.300000000000032685e+01 6.683113524245655412e+00
4.310000000000032827e+01 6.666690433776461866e+00
4.320000000000032969e+01 6.650159723146438218e+00
4.330000000000033111e+01 6.633521273513861338e+00
4.340000000000033253e+01 6.616774965040754353e+00
4.350000000000033396e+01 6.599920676903402672e+00
4.360000000000033538e+01 6.582958287302726141e+00
4.370000000000033680e+01 6.565887673474502861e+00
4.380000000000033822e+01 6.548708711699462448e+00
4.390000000000033964e+01 6.531421277313242513e+00
4.400000000000034106e+01 6.514025244716194152e+00
4.410000000000034248e+01 6.496520487383078191e+00
4.420000000000034390e+01 6.478906877872609549e+00
4.430000000000034532e+01 6.461184287836887030e+00
4.440000000000034674e+01 6.443352588030689887e+00
4.450000000000034817e+01 6.425411648320643820e+00
4.460000000000034959e+01 6.407361337694277736e+00
4.470000000000035101e+01 6.389201524268951715e+00
4.480000000000035243e+01 6.370932075300658859e+00
4.490000000000035385e+01 6.352552857192722335e+00
4.500000000000035527e+01 6.334063735504367187e+00
4.510000000000035669e+01 6.315464574959183786e+00
4.520000000000035811e+01 6.296755239453480257e+00
4.530000000000035953e+01 6.277935592064512349e+00
4.540000000000036096e+01 6.259005495058619140e+00
4.550000000000036238e+01 6.239964809899250398e+00
4.560000000000036380e+01 6.220813397254871369e+00
4.570000000000036522e+01 6.201551117006784075e+00
4.580000000000036664e+01 6.182177828256840257e+00
4.590000000000036806e+01 6.162693389335037963e+00
4.600000000000036948e+01 6.143097657807048861e+00
4.610000000000037090e+01 6.123390490481613213e+00
4.620000000000037232e+01 6.103571743417871787e+00
4.630000000000037375e+01 6.083641271932576089e+00
4.640000000000037517e+01 6.063598930607213333e+00
4.650000000000037659e+01 6.043444573295051470e+00
4.660000000000037801e+01 6.023178053128073195e+00
4.670000000000037943e+01 6.002799222523833578e+00
4.680000000000038085e+01 5.982307933192227090e+00
4.690000000000038227e+01 5.961704036142164043e+00
4.700000000000038369e+01 5.940987381688165314e+00
4.710000000000038511e+01 5.920157819456870918e+00
4.720000000000038654e+01 5.899215198393464199e+00
4.730000000000038796e+01 5.878159366768014316e+00
4.740000000000038938e+01 5.856990172181744114e+00
4.750000000000039080e+01 5.835707461573206523e+00
4.760000000000039222e+01 5.814311081224394329e+00
4.770000000000039364e+01 5.792800876766761142e+00
4.780000000000039506e+01 5.771176693187176632e+00
4.790000000000039648e+01 5.749438374833804488e+00
4.800000000000039790e+01 5.727585765421894237e+00
4.810000000000039933e+01 5.705618708039520648e+00
4.820000000000040075e+01 5.683537045153230771e+00
4.830000000000040217e+01 5.661340618613635911e+00
4.840000000000040359e+01 5.639029269660928101e+00
4.850000000000040501e+01 5.616602838930315755e+00
4.860000000000040643e+01 5.594061166457413137e+00
4.870000000000040785e+01 5.571404091683551663e+00
4.880000000000040927e+01 5.548631453461014829e+00
4.890000000000041069e+01 5.525743090058228724e+00
4.900000000000041211e+01 5.502738839164871720e+00
4.910000000000041354e+01 5.479618537896934427e+00
4.920000000000041496e+01 5.456382022801695264e+00
4.930000000000041638e+01 5.433029129862668505e+00
4.940000000000041780e+01 5.409559694504455507e+00
4.950000000000041922e+01 5.385973551597554199e+00
4.960000000000042064e+01 5.362270535463122378e+00
4.970000000000042206e+01 5.338450479877648647e+00
4.980000000000042348e+01 5.314513218077600243e+00
4.990000000000042490e+01 5.290458582763989170e+00
5.000000000000042633e+01 5.266286406106895690e+00
5.010000000000042775e+01 5.241996519749936745e+00
5.020000000000042917e+01 5.217588754814679319e+00
5.030000000000043059e+01 5.193062941904981855e+00
5.040000000000043201e+01 5.168418911111321457e+00
5.050000000000043343e+01 5.143656492015026949e+00
5.060000000000043485e+01 5.118775513692486179e+00
5.070000000000043627e+01 5.093775804719304467e+00
5.080000000000043769e+01 5.068657193174391118e+00
5.090000000000043912e+01 5.043419506644017503e+00
5.100000000000044054e+01 5.018062572225817419e+00
5.110000000000044196e+01 4.992586216532736820e+00
5.120000000000044338e+01 4.966990265696952456e+00
5.130000000000044480e+01 4.941274545373715021e+00
5.140000000000044622e+01 4.915438880745172767e+00
5.150000000000044764e+01 4.889483096524138261e+00
5.160000000000044906e+01 4.863407016957805418e+00
5.170000000000045048e+01 4.837210465831438988e+00
5.180000000000045191e+01 4.810893266471998331e+00
5.190000000000045333e+01 4.784455241751730981e+00
5.200000000000045475e+01 4.757896214091731579e+00
5.210000000000045617e+01 4.731216005465434193e+00
5.220000000000045759e+01 4.704414437402087756e+00
5.230000000000045901e+01 4.677491330990179996e+00
5.240000000000046043e+01 4.650446506880811626e+00
5.250000000000046185e+01 4.623279785291051880e+00
5.260000000000046327e+01 4.595990986007246093e+00
5.270000000000046469e+01 4.568579928388261990e+00
5.280000000000046612e+01 4.541046431368741310e+00
5.290000000000046754e+01 4.513390313462278591e+00
5.300000000000046896e+01 4.485611392764565331e+00
5.310000000000047038e+01 4.457709486956517253e+00
5.320000000000047180e+01 4.429684413307359847e+00
5.330000000000047322e+01 4.401535988677650835e+00
5.340000000000047464e+01 4.373264029522304419e+00
5.350000000000047606e+01 4.344868351893558689e+00
5.360000000000047748e+01 4.316348771443917265e+00
5.370000000000047891e+01 4.287705103429047426e+00
5.380000000000048033e+01 4.258937162710655144e+00
5.390000000000048175e+01 4.230044763759321924e+00
5.400000000000048317e+01 4.201027720657311448e+00
5.410000000000048459e+01 4.171885847101333589e+00
5.420000000000048601e+01 4.142618956405298647e+00
5.430000000000048743e+01 4.113226861503006759e+00
5.440000000000048885e+01 4.083709374950844406e+00
5.450000000000049027e+01 4.054066308930421414e+00
5.460000000000049170e+01 4.024297475251186640e+00
5.470000000000049312e+01 3.994402685353017457e+00
5.480000000000049454e+01 3.964381750308769714e+00
5.490000000000049596e+01 3.934234480826817038e+00
5.500000000000049738e+01 3.903960687253538175e+00
5.510000000000049880e+01 3.873560179575799456e+00
5.520000000000050022e+01 3.843032767423370188e+00
5.530000000000050164e+01 3.812378260071370928e+00
5.540000000000050306e+01 3.781596466442636029e+00
5.550000000000050449e+01 3.750687195110088634e+00
5.560000000000050591e+01 3.719650254299045500e+00
5.570000000000050733e+01 3.688485451889561784e+00
5.580000000000050875e+01 3.657192595418677250e+00
5.590000000000051017e+01 3.625771492082696223e+00
5.600000000000051159e+01 3.594221948739392047e+00
5.610000000000051301e+01 3.562543771910227530e+00
5.620000000000051443e+01 3.530736767782527874e+00
5.630000000000051585e+01 3.498800742211628290e+00
5.640000000000051728e+01 3.466735500723023389e+00
5.650000000000051870e+01 3.434540848514438416e+00
5.660000000000052012e+01 3.402216590457948886e+00
5.670000000000052154e+01 3.369762531102011849e+00
5.680000000000052296e+01 3.337178474673514028e+00
5.690000000000052438e+01 3.304464225079775108e+00
5.700000000000052580e+01 3.271619585910551908e+00
5.710000000000052722e+01 3.238644360439987491e+00
5.720000000000052864e+01 3.205538351628573146e+00
5.730000000000053006e+01 3.172301362125059754e+00
5.740000000000053149e+01 3.138933194268367810e+00
5.750000000000053291e+01 3.105433650089471254e+00
5.760000000000053433e+01 3.071802531313239104e+00
5.770000000000053575e+01 3.038039639360293975e+00
5.780000000000053717e+01 3.004144775348826624e+00
5.790000000000053859e+01 2.970117740096390069e+00
5.800000000000054001e+01 2.935958334121677726e+00
5.810000000000054143e+01 2.901666357646285110e+00
5.820000000000054285e+01 2.867241610596446666e+00
5.830000000000054428e+01 2.832683892604761056e+00
5.840000000000054570e+01 2.797993003011878255e+00
5.850000000000054712e+01 2.763168740868207074e+00
5.860000000000054854e+01 2.728210904935540082e+00
5.870000000000054996e+01 2.693119293688735372e+00
5.880000000000055138e+01 2.657893705317326827e+00
5.890000000000055280e+01 2.622533937727125508e+00
5.900000000000055422e+01 2.587039788541829921e+00
5.910000000000055564e+01 2.551411055104572778e+00
5.920000000000055707e+01 2.515647534479505953e+00
5.930000000000055849e+01 2.479749023453314383e+00
5.940000000000055991e+01 2.443715318536756609e+00
5.950000000000056133e+01 2.407546215966152925e+00
5.960000000000056275e+01 2.371241511704892169e+00
5.970000000000056417e+01 2.334801001444881674e+00
5.980000000000056559e+01 2.298224480608020315e+00
5.990000000000056701e+01 2.261511744347637798e+00
6.000000000000056843e+01 2.224662587549905979e+00
6.010000000000056986e+01 2.187676804835253286e+00
6.020000000000057128e+01 2.150554190559760936e+00
6.030000000000057270e+01 2.113294538816538282e+00
6.040000000000057412e+01 2.075897643437090156e+00
6.050000000000057554e+01 2.038363297992643819e+00
6.060000000000057696e+01 2.000691295795507862e+00
6.070000000000057838e+01 1.962881429900373620e+00
6.080000000000057980e+01 1.924933493105628779e+00
6.090000000000058122e+01 1.886847277954626367e+00
6.100000000000058265e+01 1.848622576737002809e+00
6.110000000000058407e+01 1.810259181489873415e+00
6.120000000000058549e+01 1.771756883999154208e+00
6.130000000000058691e+01 1.733115475800723670e+00
6.140000000000058833e+01 1.694334748181702377e+00
6.150000000000058975e+01 1.655414492181628061e+00
6.160000000000059117e+01 1.616354498593649991e+00
6.170000000000059259e+01 1.577154557965716686e+00
6.180000000000059401e+01 1.537814460601743649e+00
6.190000000000059543e+01 1.498333996562773551e+00
6.200000000000059686e+01 1.458712955668093780e+00
6.210000000000059828e+01 1.418951127496399289e+00
6.220000000000059970e+01 1.379048301386884834e+00
6.230000000000060112e+01 1.339004266440368074e+00
6.240000000000060254e+01 1.298818811520362271e+00
6.250000000000060396e+01 1.258491725254172300e+00
6.260000000000060538e+01 1.218022796033967570e+00
6.270000000000060680e+01 1.177411812017819415e+00
6.280000000000060822e+01 1.136658561130773570e+00
6.290000000000060965e+01 1.095762831065860032e+00
6.300000000000061107e+01 1.054724409285133335e+00
6.310000000000061249e+01 1.013543083020677971e+00
6.320000000000061391e+01 9.722186392756048123e-01
6.330000000000061533e+01 9.307508648250482075e-01
6.340000000000061675e+01 8.891395462171481912e-01
6.350000000000061817e+01 8.473844697739996157e-01
6.360000000000061959e+01 8.054854215926496863e-01
6.370000000000062101e+01 7.634421875459854734e-01
6.380000000000062244e+01 7.212545532837334461e-01
6.390000000000062386e+01 6.789223042333423219e-01
6.400000000000062528e+01 6.364452256009304199e-01
6.410000000000061959e+01 5.938231023721570745e-01
6.420000000000062812e+01 5.510557193131464526e-01
6.430000000000063665e+01 5.081428609713745104e-01
6.440000000000063096e+01 4.650843116765384089e-01
6.450000000000062528e+01 4.218798555414124962e-01
6.460000000000063380e+01 3.785292764627173345e-01
6.470000000000064233e+01 3.350323581219802338e-01
6.480000000000063665e+01 2.913888839863643665e-01
6.490000000000063096e+01 2.475986373094891391e-01
6.500000000000063949e+01 2.036614011322459838e-01
6.510000000000064801e+01 1.595769582836454870e-01
6.520000000000064233e+01 1.153450913815989298e-01
6.530000000000063665e+01 7.096558283368988029e-02
6.540000000000064517e+01 2.643821483798537361e-02
6.550000000000065370e+01 -1.823723061617327917e-02
6.560000000000064801e+01 -6.306097174743037492e-02
6.570000000000064233e+01 -1.080332269816577928e-01
6.580000000000065086e+01 -1.531542149511895545e-01
6.590000000000065938e+01 -1.984241544940742452e-01
6.600000000000065370e+01 -2.438432646533480741e-01
6.610000000000064801e+01 -2.894117646763200713e-01
6.620000000000065654e+01 -3.351298740138419774e-01
6.630000000000066507e+01 -3.809978123195861266e-01
6.640000000000065938e+01 -4.270157994493673503e-01
6.650000000000065370e+01 -4.731840554604340165e-01
6.660000000000066223e+01 -5.195028006107738072e-01
6.670000000000067075e+01 -5.659722553584625171e-01
6.680000000000066507e+01 -6.125926403609430748e-01
6.690000000000065938e+01 -6.593641764744173628e-01
6.700000000000066791e+01 -7.062870847531684815e-01
6.710000000000067644e+01 -7.533615864488824032e-01
6.720000000000067075e+01 -8.005879030100286897e-01
6.730000000000066507e+01 -8.479662560812545324e-01
6.740000000000067359e+01 -8.954968675027085157e-01
6.750000000000068212e+01 -9.431799593094298828e-01
6.760000000000067644e+01 -9.910157537307530129e-01
6.770000000000067075e+01 -1.039004473189704569e+00
6.780000000000067928e+01 -1.087146340302370451e+00
6.790000000000068781e+01 -1.135441577877331909e+00
6.800000000000068212e+01 -1.183890408915056147e+00
6.810000000000067644e+01 -1.232493056607339321e+00
6.820000000000068496e+01 -1.281249744336735219e+00
6.830000000000069349e+01 -1.330160695675940197e+00
6.840000000000068781e+01 -1.379226134387291802e+00
6.850000000000068212e+01 -1.428446284422185908e+00
6.860000000000069065e+01 -1.477821369920537808e+00
6.870000000000069917e+01 -1.527351615210222224e+00
6.880000000000069349e+01 -1.577037244806553717e+00
6.890000000000068781e+01 -1.626878483411759335e+00
6.900000000000069633e+01 -1.676875555914461247e+00
6.910000000000070486e+01 -1.727028687389124961e+00
6.920000000000069917e+01 -1.777338103095585931e+00
6.930000000000069349e+01 -1.827804028478527520e+00
6.940000000000070202e+01 -1.878426689166988295e+00
6.950000000000071054e+01 -1.929206310973856864e+00
6.960000000000070486e+01 -1.980143119895378501e+00
6.970000000000069917e+01 -2.031237342110715272e+00
6.980000000000070770e+01 -2.082489203981418679e+00
6.990000000000071623e+01 -2.133898932050971808e+00
7.000000000000071054e+01 -2.185466753044337462e+00
7.010000000000070486e+01 -2.237192893867487875e+00
7.020000000000071338e+01 -2.289077581606962841e+00
7.030000000000072191e+01 -2.341121043529397650e+00
7.040000000000071623e+01 -2.393323507081075885e+00
7.050000000000071054e+01 -2.445685199887539518e+00
7.060000000000071907e+01 -2.498206349753093747e+00
7.070000000000072760e+01 -2.550887184660408646e+00
7.080000000000072191e+01 -2.603727932770090181e+00
7.090000000000071623e+01 -2.656728822420265868e+00
7.100000000000072475e+01 -2.709890082126178434e+00
7.110000000000073328e+01 -2.763211940579747061e+00
7.120000000000072760e+01 -2.816694626649174360e+00
7.130000000000072191e+01 -2.870338369378592436e+00
7.140000000000073044e+01 -2.924143397987612136e+00
7.150000000000073896e+01 -2.978109941870947353e+00
7.160000000000073328e+01 -3.032238230598036210e+00
7.170000000000072760e+01 -3.086528493912668036e+00
7.180000000000073612e+01 -3.140980961732624088e+00
7.190000000000074465e+01 -3.195595864149242349e+00
7.200000000000073896e+01 -3.250373431427104443e+00
7.210000000000073328e+01 -3.305313894003685249e+00
7.220000000000074181e+01 -3.360417482488964769e+00
7.230000000000075033e+01 -3.415684427665066192e+00
7.240000000000074465e+01 -3.471114960485933931e+00
7.250000000000073896e+01 -3.526709312076985459e+00
7.260000000000074749e+01 -3.582467713734772019e+00
7.270000000000075602e+01 -3.638390396926632242e+00
7.280000000000075033e+01 -3.694477593290341311e+00
7.290000000000074465e+01 -3.750729534633847173e+00
7.300000000000075318e+01 -3.807146452934885517e+00
7.310000000000076170e+01 -3.863728580340704877e+00
7.320000000000075602e+01 -3.920476149167696267e+00
7.330000000000075033e+01 -3.977389391901152482e+00
7.340000000000075886e+01 -4.034468541194915936e+00
7.350000000000076739e+01 -4.091713829871075347e+00
7.360000000000076170e+01 -4.149125490919685078e+00
7.370000000000075602e+01 -4.206703757498463148e+00
7.380000000000076454e+01 -4.264448862932496809e+00
7.390000000000077307e+01 -4.322361040713968094e+00
7.400000000000076739e+01 -4.380440524501831412e+00
7.410000000000076170e+01 -4.438687548121602156e+00
7.420000000000077023e+01 -4.497102345565010317e+00
7.430000000000077875e+01 -4.555685150989779331e+00
7.440000000000077307e+01 -4.614436198719308990e+00
7.450000000000076739e+01 -4.673355723242457849e+00
7.460000000000077591e+01 -4.732443959213262552e+00
7.470000000000078444e+01 -4.791701141450676715e+00
7.480000000000077875e+01 -4.851127504938303581e+00
7.490000000000077307e+01 -4.910723284824179302e+00
7.500000000000078160e+01 -4.970488716420497610e+00
7.510000000000079012e+01 -5.030424035203369115e+00
7.520000000000078444e+01 -5.090529476812581500e+00
7.530000000000077875e+01 -5.150805277051388131e+00
7.540000000000078728e+01 -5.211251671886229175e+00
7.550000000000079581e+01 -5.271868897446538860e+00
7.560000000000079012e+01 -5.332657190024473692e+00
7.570000000000078444e+01 -5.393616786074751701e+00
7.580000000000079297e+01 -5.454747922214394862e+00
7.590000000000080149e+01 -5.516050835222491067e+00
7.600000000000079581e+01 -5.577525762039997836e+00
7.610000000000079012e+01 -5.639172939769562909e+00
7.620000000000079865e+01 -5.700992605675275549e+00
7.630000000000080718e+01 -5.762984997182468483e+00
7.640000000000080149e+01 -5.825150351877509181e+00
7.650000000000079581e+01 -5.887488907507634650e+00
7.660000000000080433e+01 -5.950000901980738277e+00
7.670000000000081286e+01 -6.012686573365144227e+00
7.680000000000080718e+01 -6.075546159889444908e+00
7.690000000000080149e+01 -6.138579899942325113e+00
7.700000000000081002e+01 -6.201788032072382606e+00
7.710000000000081855e+01 -6.265170794987902525e+00
7.720000000000081286e+01 -6.328728427556693070e+00
7.730000000000080718e+01 -6.392461168805949612e+00
7.740000000000081570e+01 -6.456369257922064619e+00
7.750000000000082423e+01 -6.520452934250412724e+00
7.760000000000081855e+01 -6.584712437295216603e+00
7.770000000000081286e+01 -6.649148006719409310e+00
7.780000000000082139e+01 -6.713759882344451313e+00
7.790000000000082991e+01 -6.778548304150124437e+00
7.800000000000082423e+01 -6.843513512274442157e+00
7.810000000000081855e+01 -6.908655747013467519e+00
7.820000000000082707e+01 -6.973975248821179029e+00
7.830000000000083560e+01 -7.039472258309273478e+00
7.840000000000082991e+01 -7.105147016247065572e+00
7.850000000000082423e+01 -7.170999763561346718e+00
7.860000000000083276e+01 -7.237030741336218931e+00
7.870000000000084128e+01 -7.303240190812970489e+00
7.880000000000083560e+01 -7.369628353389906295e+00
7.890000000000082991e+01 -7.436195470622284809e+00
7.900000000000083844e+01 -7.502941784222135979e+00
7.910000000000084697e+01 -7.569867536058115576e+00
7.920000000000084128e+01 -7.636972968155425256e+00
7.930000000000083560e+01 -7.704258322695664241e+00
7.940000000000084412e+01 -7.771723842016731609e+00
7.950000000000085265e+01 -7.839369768612651335e+00
7.960000000000084697e+01 -7.907196345133515436e+00
7.970000000000084128e+01 -7.975203814385342760e+00
7.980000000000084981e+01 -8.043392419329974175e+00
7.990000000000085834e+01 -8.111762403084938455e+00
