2.000000000000000000e+01 6.387613807187651815e+00
2.010000000000000142e+01 6.398104023688579112e+00
2.020000000000000284e+01 6.408411002043854054e+00
2.030000000000000426e+01 6.418536510295979269e+00
2.040000000000000568e+01 6.428482279882737238e+00
2.050000000000000711e+01 6.438250006466850195e+00
2.060000000000000853e+01 6.447841350743471978e+00
2.070000000000000995e+01 6.457257939226139776e+00
2.080000000000001137e+01 6.466501365011897207e+00
2.090000000000001279e+01 6.475573188526159818e+00
2.100000000000001421e+01 6.484474938248008691e+00
2.110000000000001563e+01 6.493208111416434392e+00
2.120000000000001705e+01 6.501774174718150334e+00
2.130000000000001847e+01 6.510174564957508458e+00
2.140000000000001990e+01 6.518410689709051020e+00
2.150000000000002132e+01 6.526483927953224295e+00
2.160000000000002274e+01 6.534395630695734702e+00
2.170000000000002416e+01 6.542147121571057156e+00
2.180000000000002558e+01 6.549739697430523755e+00
2.190000000000002700e+01 6.557174628915491965e+00
2.200000000000002842e+01 6.564453161015981308e+00
2.210000000000002984e+01 6.571576513615227100e+00
2.220000000000003126e+01 6.578545882020552682e+00
2.230000000000003268e+01 6.585362437480958953e+00
2.240000000000003411e+01 6.592027327691805105e+00
2.250000000000003553e+01 6.598541677286948293e+00
2.260000000000003695e+01 6.604906588318716132e+00
2.270000000000003837e+01 6.611123140726044234e+00
2.280000000000003979e+01 6.617192392791105604e+00
2.290000000000004121e+01 6.623115381584791628e+00
2.300000000000004263e+01 6.628893123401304877e+00
2.310000000000004405e+01 6.634526614182229665e+00
2.320000000000004547e+01 6.640016829930309505e+00
2.330000000000004690e+01 6.645364727113285852e+00
2.340000000000004832e+01 6.650571243058001514e+00
2.350000000000004974e+01 6.655637296335113362e+00
2.360000000000005116e+01 6.660563787134595515e+00
2.370000000000005258e+01 6.665351597632357183e+00
2.380000000000005400e+01 6.670001592348158148e+00
2.390000000000005542e+01 6.674514618495107854e+00
2.400000000000005684e+01 6.678891506320929317e+00
2.410000000000005826e+01 6.683133069441256957e+00
2.420000000000005969e+01 6.687240105165153992e+00
2.430000000000006111e+01 6.691213394813048332e+00
2.440000000000006253e+01 6.695053704027330355e+00
2.450000000000006395e+01 6.698761783075776854e+00
2.460000000000006537e+01 6.702338367147984144e+00
2.470000000000006679e+01 6.705784176645030570e+00
2.480000000000006821e+01 6.709099917462514107e+00
2.490000000000006963e+01 6.712286281267153321e+00
2.500000000000007105e+01 6.715343945767118683e+00
2.510000000000007248e+01 6.718273574976265650e+00
2.520000000000007390e+01 6.721075819472403623e+00
2.530000000000007532e+01 6.723751316649784648e+00
2.540000000000007674e+01 6.726300690965944185e+00
2.550000000000007816e+01 6.728724554183048490e+00
2.560000000000007958e+01 6.731023505603869417e+00
2.570000000000008100e+01 6.733198132302560701e+00
2.580000000000008242e+01 6.735249009350328109e+00
2.590000000000008384e+01 6.737176700036155985e+00
2.600000000000008527e+01 6.738981756082685237e+00
2.610000000000008669e+01 6.740664717857399957e+00
2.620000000000008811e+01 6.742226114579205287e+00
2.630000000000008953e+01 6.743666464520535087e+00
2.640000000000009095e+01 6.744986275205096860e+00
2.650000000000009237e+01 6.746186043601355209e+00
2.660000000000009379e+01 6.747266256311862165e+00
2.670000000000009521e+01 6.748227389758549855e+00
2.680000000000009663e+01 6.749069910364062785e+00
2.690000000000009805e+01 6.749794274729246979e+00
2.700000000000009948e+01 6.750400929806877670e+00
2.710000000000010090e+01 6.750890313071719717e+00
2.720000000000010232e+01 6.751262852687013094e+00
2.730000000000010374e+01 6.751518967667475835e+00
2.740000000000010516e+01 6.751659068038891043e+00
2.750000000000010658e+01 6.751683554994374781e+00
2.760000000000010800e+01 6.751592821047405657e+00
2.770000000000010942e+01 6.751387250181680066e+00
2.780000000000011084e+01 6.751067217997873016e+00
2.790000000000011227e+01 6.750633091857410228e+00
2.800000000000011369e+01 6.750085231023259524e+00
2.810000000000011511e+01 6.749423986797864927e+00
2.820000000000011653e+01 6.748649702658270577e+00
2.830000000000011795e+01 6.747762714388502836e+00
2.840000000000011937e+01 6.746763350209277199e+00
2.850000000000012079e+01 6.745651930905077087e+00
2.860000000000012221e+01 6.744428769948701330e+00
2.870000000000012363e+01 6.743094173623289223e+00
2.880000000000012506e+01 6.741648441141934178e+00
2.890000000000012648e+01 6.740091864764894858e+00
2.900000000000012790e+01 6.738424729914492595e+00
2.910000000000012932e+01 6.736647315287734195e+00
2.920000000000013074e+01 6.734759892966702743e+00
2.930000000000013216e+01 6.732762728526797247e+00
2.940000000000013358e+01 6.730656081142825542e+00
2.950000000000013500e+01 6.728440203693051735e+00
2.960000000000013642e+01 6.726115342861191948e+00
2.970000000000013785e+01 6.723681739236441857e+00
2.980000000000013927e+01 6.721139627411568895e+00
2.990000000000014069e+01 6.718489236079096649e+00
3.000000000000014211e+01 6.715730788125667594e+00
3.010000000000014353e+01 6.712864500724551320e+00
3.020000000000014495e+01 6.709890585426430576e+00
3.030000000000014637e+01 6.706809248248421618e+00
3.040000000000014779e+01 6.703620689761410567e+00
3.050000000000014921e+01 6.700325105175746643e+00
3.060000000000015064e+01 6.696922684425301142e+00
3.070000000000015206e+01 6.693413612249949907e+00
3.080000000000015348e+01 6.689798068276500587e+00
3.090000000000015490e+01 6.686076227098105562e+00
3.100000000000015632e+01 6.682248258352199599e+00
3.110000000000015774e+01 6.678314326796972900e+00
3.120000000000015916e+01 6.674274592386438165e+00
3.130000000000016058e+01 6.670129210344091675e+00
3.140000000000016200e+01 6.665878331235231435e+00
3.150000000000016342e+01 6.661522101037927968e+00
3.160000000000016485e+01 6.657060661212712560e+00
3.170000000000016627e+01 6.652494148770967897e+00
3.180000000000016769e+01 6.647822696342086779e+00
3.190000000000016911e+01 6.643046432239400723e+00
3.200000000000017053e+01 6.638165480524922835e+00
3.210000000000017195e+01 6.633179961072901420e+00
3.220000000000017337e+01 6.628089989632245604e+00
3.230000000000017479e+01 6.622895677887819410e+00
3.240000000000017621e+01 6.617597133520632724e+00
3.250000000000017764e+01 6.612194460266966445e+00
3.260000000000017906e+01 6.606687757976430930e+00
3.270000000000018048e+01 6.601077122669007480e+00
3.280000000000018190e+01 6.595362646591058642e+00
3.290000000000018332e+01 6.589544418270360637e+00
3.300000000000018474e+01 6.583622522570166780e+00
3.310000000000018616e+01 6.577597040742312551e+00
3.320000000000018758e+01 6.571468050479388978e+00
3.330000000000018900e+01 6.565235625966019839e+00
3.340000000000019043e+01 6.558899837929214272e+00
3.350000000000019185e+01 6.552460753687872064e+00
3.360000000000019327e+01 6.545918437201418527e+00
3.370000000000019469e+01 6.539272949117597378e+00
3.380000000000019611e+01 6.532524346819434058e+00
3.390000000000019753e+01 6.525672684471409468e+00
3.400000000000019895e+01 6.518718013064818351e+00
3.410000000000020037e+01 6.511660380462370057e+00
3.420000000000020179e+01 6.504499831442009494e+00
3.430000000000020322e+01 6.497236407740020425e+00
3.440000000000020464e+01 6.489870148093364932e+00
3.450000000000020606e+01 6.482401088281325663e+00
3.460000000000020748e+01 6.474829261166439309e+00
3.470000000000020890e+01 6.467154696734746189e+00
3.480000000000021032e+01 6.459377422135355040e+00
3.490000000000021174e+01 6.451497461719349680e+00
3.500000000000021316e+01 6.443514837078045510e+00
3.510000000000021458e+01 6.435429567080608315e+00
3.520000000000021600e+01 6.427241667911052225e+00
3.530000000000021743e+01 6.418951153104612395e+00
3.540000000000021885e+01 6.410558033583528825e+00
3.550000000000022027e+01 6.402062317692231552e+00
3.560000000000022169e+01 6.393464011231960065e+00
3.570000000000022311e+01 6.384763117494792084e+00
3.580000000000022453e+01 6.375959637297137661e+00
3.590000000000022595e+01 6.367053569012678160e+00
3.600000000000022737e+01 6.358044908604762568e+00
3.610000000000022879e+01 6.348933649658292211e+00
3.620000000000023022e+01 6.339719783411070786e+00
3.630000000000023164e+01 6.330403298784670341e+00
3.640000000000023306e+01 6.320984182414772334e+00
3.650000000000023448e+01 6.311462418681050401e+00
3.660000000000023590e+01 6.301837989736550405e+00
3.670000000000023732e+01 6.292110875536612191e+00
3.680000000000023874e+01 6.282281053867331266e+00
3.690000000000024016e+01 6.272348500373554181e+00
3.700000000000024158e+01 6.262313188586448476e+00
3.710000000000024301e+01 6.252175089950624987e+00
3.720000000000024443e+01 6.241934173850829382e+00
3.730000000000024585e+01 6.231590407638217144e+00
3.740000000000024727e+01 6.221143756656222656e+00
3.750000000000024869e+01 6.210594184266004625e+00
3.760000000000025011e+01 6.199941651871514914e+00
3.770000000000025153e+01 6.189186118944157045e+00
3.780000000000025295e+01 6.178327543047074322e+00
3.790000000000025437e+01 6.167365879859050715e+00
3.800000000000025580e+01 6.156301083198058244e+00
3.810000000000025722e+01 6.145133105044411792e+00
3.820000000000025864e+01 6.133861895563599731e+00
3.830000000000026006e+01 6.122487403128732630e+00
3.840000000000026148e+01 6.111009574342680217e+00
3.850000000000026290e+01 6.099428354059835300e+00
3.860000000000026432e+01 6.087743685407570382e+00
3.870000000000026574e+01 6.075955509807356769e+00
3.880000000000026716e+01 6.064063766995566596e+00
3.890000000000026859e+01 6.052068395043952442e+00
3.900000000000027001e+01 6.039969330379825863e+00
3.910000000000027143e+01 6.027766507805931262e+00
3.920000000000027285e+01 6.015459860520008917e+00
3.930000000000027427e+01 6.003049320134076439e+00
3.940000000000027569e+01 5.990534816693418030e+00
3.950000000000027711e+01 5.977916278695287744e+00
3.960000000000027853e+01 5.965193633107328530e+00
3.970000000000027995e+01 5.952366805385739035e+00
3.980000000000028137e+01 5.939435719493135757e+00
3.990000000000028280e+01 5.926400297916179838e+00
4.000000000000028422e+01 5.913260461682933844e+00
4.010000000000028564e+01 5.900016130379959201e+00
4.020000000000028706e+01 5.886667222169160496e+00
4.030000000000028848e+01 5.873213653804396195e+00
4.040000000000028990e+01 5.859655340647824673e+00
4.050000000000029132e+01 5.845992196686032649e+00
4.060000000000029274e+01 5.832224134545911376e+00
4.070000000000029416e+01 5.818351065510310782e+00
4.080000000000029559e+01 5.804372899533470687e+00
4.090000000000029701e+01 5.790289545256213977e+00
4.100000000000029843e+01 5.776100910020930179e+00
4.110000000000029985e+01 5.761806899886341427e+00
4.120000000000030127e+01 5.747407419642057924e+00
4.130000000000030269e+01 5.732902372822922921e+00
4.140000000000030411e+01 5.718291661723142738e+00
4.150000000000030553e+01 5.703575187410229397e+00
4.160000000000030695e+01 5.688752849738742512e+00
4.170000000000030838e+01 5.673824547363819804e+00
4.180000000000030980e+01 5.658790177754533524e+00
4.190000000000031122e+01 5.643649637207050596e+00
4.200000000000031264e+01 5.628402820857604461e+00
4.210000000000031406e+01 5.613049622695283958e+00
4.220000000000031548e+01 5.597589935574650788e+00
4.230000000000031690e+01 5.582023651228165129e+00
4.240000000000031832e+01 5.566350660278446938e+00
4.250000000000031974e+01 5.550570852250364062e+00
4.260000000000032117e+01 5.534684115582951591e+00
4.270000000000032259e+01 5.518690337641161570e+00
4.280000000000032401e+01 5.502589404727448397e+00
4.290000000000032543e+01 5.486381202093210341e+00
4.300000000000032685e+01 5.470065613950037431e+00
4.310000000000032827e+01 5.453642523480843884e+00
4.320000000000032969e+01 5.437111812850820236e+00
4.330000000000033111e+01 5.420473363218243357e+00
4.340000000000033253e+01 5.403727054745136371e+00
4.350000000000033396e+01 5.386872766607784691e+00
4.360000000000033538e+01 5.369910377007108160e+00
4.370000000000033680e+01 5.352839763178884880e+00
4.380000000000033822e+01 5.335660801403844467e+00
4.390000000000033964e+01 5.318373367017624531e+00
4.400000000000034106e+01 5.300977334420576170e+00
4.410000000000034248e+01 5.283472577087459321e+00
4.420000000000034390e+01 5.265858967576990679e+00
4.430000000000034532e+01 5.248136377541269049e+00
4.440000000000034674e+01 5.230304677735071905e+00
4.450000000000034817e+01 5.212363738025025839e+00
4.460000000000034959e+01 5.194313427398659755e+00
4.470000000000035101e+01 5.176153613973333734e+00
4.480000000000035243e+01 5.157884165005040877e+00
4.490000000000035385e+01 5.139504946897103466e+00
4.500000000000035527e+01 5.121015825208748318e+00
4.510000000000035669e+01 5.102416664663565804e+00
4.520000000000035811e+01 5.083707329157862276e+00
4.530000000000035953e+01 5.064887681768894367e+00
4.540000000000036096e+01 5.045957584763001158e+00
4.550000000000036238e+01 5.026916899603631528e+00
4.560000000000036380e+01 5.007765486959253387e+00
4.570000000000036522e+01 4.988503206711166094e+00
4.580000000000036664e+01 4.969129917961221388e+00
4.590000000000036806e+01 4.949645479039419982e+00
4.600000000000036948e+01 4.930049747511429992e+00
4.610000000000037090e+01 4.910342580185995232e+00
4.620000000000037232e+01 4.890523833122253805e+00
4.630000000000037375e+01 4.870593361636958107e+00
4.640000000000037517e+01 4.850551020311595352e+00
4.650000000000037659e+01 4.830396662999433488e+00
4.660000000000037801e+01 4.810130142832455213e+00
4.670000000000037943e+01 4.789751312228215596e+00
4.680000000000038085e+01 4.769260022896609108e+00
4.690000000000038227e+01 4.748656125846546061e+00
4.700000000000038369e+01 4.727939471392547333e+00
4.710000000000038511e+01 4.707109909161252936e+00
4.720000000000038654e+01 4.686167288097846217e+00
4.730000000000038796e+01 4.665111456472395446e+00
4.740000000000038938e+01 4.643942261886126133e+00
4.750000000000039080e+01 4.622659551277587653e+00
4.760000000000039222e+01 4.601263170928776347e+00
4.770000000000039364e+01 4.579752966471143161e+00
4.780000000000039506e+01 4.558128782891558650e+00
4.790000000000039648e+01 4.536390464538186507e+00
4.800000000000039790e+01 4.514537855126276256e+00
4.810000000000039933e+01 4.492570797743902666e+00
4.820000000000040075e+01 4.470489134857612790e+00
4.830000000000040217e+01 4.448292708318017930e+00
4.840000000000040359e+01 4.425981359365310119e+00
4.850000000000040501e+01 4.403554928634697774e+00
4.860000000000040643e+01 4.381013256161795155e+00
4.870000000000040785e+01 4.358356181387933681e+00
4.880000000000040927e+01 4.335583543165396847e+00
4.890000000000041069e+01 4.312695179762610742e+00
4.900000000000041211e+01 4.289690928869253739e+00
4.910000000000041354e+01 4.266570627601315557e+00
4.920000000000041496e+01 4.243334112506077282e+00
4.930000000000041638e+01 4.219981219567049635e+00
4.940000000000041780e+01 4.196511784208837526e+00
4.950000000000041922e+01 4.172925641301936217e+00
4.960000000000042064e+01 4.149222625167503509e+00
4.970000000000042206e+01 4.125402569582030665e+00
4.980000000000042348e+01 4.101465307781981373e+00
4.990000000000042490e+01 4.077410672468370301e+00
5.000000000000042633e+01 4.053238495811276820e+00
5.010000000000042775e+01 4.028948609454317875e+00
5.020000000000042917e+01 4.004540844519061338e+00
5.030000000000043059e+01 3.980015031609363874e+00
5.040000000000043201e+01 3.955371000815703475e+00
5.050000000000043343e+01 3.930608581719408523e+00
5.060000000000043485e+01 3.905727603396867753e+00
5.070000000000043627e+01 3.880727894423686486e+00
5.080000000000043769e+01 3.855609282878772692e+00
5.090000000000043912e+01 3.830371596348399521e+00
5.100000000000044054e+01 3.805014661930198994e+00
5.110000000000044196e+01 3.779538306237118839e+00
5.120000000000044338e+01 3.753942355401334474e+00
5.130000000000044480e+01 3.728226635078097040e+00
5.140000000000044622e+01 3.702390970449554786e+00
5.150000000000044764e+01 3.676435186228519836e+00
5.160000000000044906e+01 3.650359106662187436e+00
5.170000000000045048e+01 3.624162555535821006e+00
5.180000000000045191e+01 3.597845356176379905e+00
5.190000000000045333e+01 3.571407331456112999e+00
5.200000000000045475e+01 3.544848303796113154e+00
5.210000000000045617e+01 3.518168095169815768e+00
5.220000000000045759e+01 3.491366527106469775e+00
5.230000000000045901e+01 3.464443420694562015e+00
5.240000000000046043e+01 3.437398596585193644e+00
5.250000000000046185e+01 3.410231874995433898e+00
5.260000000000046327e+01 3.382943075711627667e+00
5.270000000000046469e+01 3.355532018092644009e+00
5.280000000000046612e+01 3.327998521073123328e+00
5.290000000000046754e+01 3.300342403166660610e+00
5.300000000000046896e+01 3.272563482468946905e+00
5.310000000000047038e+01 3.244661576660899271e+00
5.320000000000047180e+01 3.216636503011741866e+00
5.330000000000047322e+01 3.188488078382032853e+00
5.340000000000047464e+01 3.160216119226686438e+00
5.350000000000047606e+01 3.131820441597940263e+00
5.360000000000047748e+01 3.103300861148298839e+00
5.370000000000047891e+01 3.074657193133429001e+00
5.380000000000048033e+01 3.045889252415036719e+00
5.390000000000048175e+01 3.016996853463703943e+00
5.400000000000048317e+01 2.987979810361693467e+00
5.410000000000048459e+01 2.958837936805715163e+00
5.420000000000048601e+01 2.929571046109680665e+00
5.430000000000048743e+01 2.900178951207388778e+00
5.440000000000048885e+01 2.870661464655226425e+00
5.450000000000049027e+01 2.841018398634802988e+00
5.460000000000049170e+01 2.811249564955568658e+00
5.470000000000049312e+01 2.781354775057399475e+00
5.480000000000049454e+01 2.751333840013151733e+00
5.490000000000049596e+01 2.721186570531199056e+00
5.500000000000049738e+01 2.690912776957919750e+00
5.510000000000049880e+01 2.660512269280181474e+00
5.520000000000050022e+01 2.629984857127751763e+00
5.530000000000050164e+01 2.599330349775752502e+00
5.540000000000050306e+01 2.568548556147018047e+00
5.550000000000050449e+01 2.537639284814470653e+00
5.560000000000050591e+01 2.506602344003427074e+00
5.570000000000050733e+01 2.475437541593943358e+00
5.580000000000050875e+01 2.444144685123059269e+00
5.590000000000051017e+01 2.412723581787077798e+00
5.600000000000051159e+01 2.381174038443773622e+00
5.610000000000051301e+01 2.349495861614609105e+00
5.620000000000051443e+01 2.317688857486909448e+00
5.630000000000051585e+01 2.285752831916009864e+00
5.640000000000051728e+01 2.253687590427405407e+00
5.650000000000051870e+01 2.221492938218820434e+00
5.660000000000052012e+01 2.189168680162330460e+00
5.670000000000052154e+01 2.156714620806393423e+00
5.680000000000052296e+01 2.124130564377896047e+00
5.690000000000052438e+01 2.091416314784156683e+00
5.700000000000052580e+01 2.058571675614933483e+00
5.710000000000052722e+01 2.025596450144369509e+00
5.720000000000052864e+01 1.992490441332954942e+00
5.730000000000053006e+01 1.959253451829441550e+00
5.740000000000053149e+01 1.925885283972749829e+00
5.750000000000053291e+01 1.892385739793853050e+00
5.760000000000053433e+01 1.858754621017621123e+00
5.770000000000053575e+01 1.824991729064675772e+00
5.780000000000053717e+01 1.791096865053208420e+00
5.790000000000053859e+01 1.757069829800771643e+00
5.800000000000054001e+01 1.722910423826059745e+00
5.810000000000054143e+01 1.688618447350666907e+00
5.820000000000054285e+01 1.654193700300828684e+00
5.830000000000054428e+01 1.619635982309142852e+00
5.840000000000054570e+01 1.584945092716260051e+00
5.850000000000054712e+01 1.550120830572588870e+00
5.860000000000054854e+01 1.515162994639922101e+00
5.870000000000054996e+01 1.480071383393117168e+00
5.880000000000055138e+01 1.444845795021708623e+00
5.890000000000055280e+01 1.409486027431507527e+00
5.900000000000055422e+01 1.373991878246211495e+00
5.910000000000055564e+01 1.338363144808954575e+00
5.920000000000055707e+01 1.302599624183887750e+00
5.930000000000055849e+01 1.266701113157696179e+00
5.940000000000055991e+01 1.230667408241138405e+00
5.950000000000056133e+01 1.194498305670534943e+00
5.960000000000056275e+01 1.158193601409273743e+00
5.970000000000056417e+01 1.121753091149263248e+00
5.980000000000056559e+01 1.085176570312401889e+00
5.990000000000056701e+01 1.048463834052019594e+00
6.000000000000056843e+01 1.011614677254287775e+00
6.010000000000056986e+01 9.746288945396350822e-01
6.020000000000057128e+01 9.375062802641426218e-01
6.030000000000057270e+01 9.002466285209201891e-01
6.040000000000057412e+01 8.628497331414721749e-01
6.050000000000057554e+01 8.253153876970255043e-01
6.060000000000057696e+01 7.876433854998897699e-01
6.070000000000057838e+01 7.498335196047554163e-01
6.080000000000057980e+01 7.118855828100105754e-01
6.090000000000058122e+01 6.737993676590081638e-01
6.100000000000058265e+01 6.355746664413844949e-01
6.110000000000058407e+01 5.972112711942551000e-01
6.120000000000058549e+01 5.587089737035360049e-01
6.130000000000058691e+01 5.200675655051054669e-01
6.140000000000058833e+01 4.812868378860841179e-01
6.150000000000058975e+01 4.423665818860098020e-01
6.160000000000059117e+01 4.033065882980317318e-01
6.170000000000059259e+01 3.641066476700984267e-01
6.180000000000059401e+01 3.247665503061254455e-01
6.190000000000059543e+01 2.852860862671552367e-01
6.200000000000059686e+01 2.456650453724756045e-01
6.210000000000059828e+01 2.059032172007811690e-01
6.220000000000059970e+01 1.660003910912666580e-01
6.230000000000060112e+01 1.259563561447498703e-01
6.240000000000060254e+01 8.577090122474403944e-02
6.250000000000060396e+01 4.544381495855413094e-02
6.260000000000060538e+01 4.974885738349320990e-03
6.270000000000060680e+01 -3.563609827779869177e-02
6.280000000000060822e+01 -7.638934916484464710e-02
6.290000000000060965e+01 -1.172850792297580602e-01
6.300000000000061107e+01 -1.583235010104848961e-01
6.310000000000061249e+01 -1.995048272749403162e-01
6.320000000000061391e+01 -2.408292710200133357e-01
6.330000000000061533e+01 -2.822970454705700516e-01
6.340000000000061675e+01 -3.239083640784700124e-01
6.350000000000061817e+01 -3.656634405216186434e-01
6.360000000000061959e+01 -4.075624887029685173e-01
6.370000000000062101e+01 -4.496057227496327302e-01
6.380000000000062244e+01 -4.917933570118847020e-01
6.390000000000062386e+01 -5.341256060622758817e-01
6.400000000000062528e+01 -5.766026846946877837e-01
6.410000000000061959e+01 -6.192248079234611291e-01
6.420000000000062812e+01 -6.619921909824717510e-01
6.430000000000063665e+01 -7.049050493242436932e-01
6.440000000000063096e+01 -7.479635986190797947e-01
6.450000000000062528e+01 -7.911680547542057074e-01
6.460000000000063380e+01 -8.345186338329008136e-01
6.470000000000064233e+01 -8.780155521736379143e-01
6.480000000000063665e+01 -9.216590263092537816e-01
6.490000000000063096e+01 -9.654492729861290368e-01
6.500000000000063949e+01 -1.009386509163372247e+00
6.510000000000064801e+01 -1.053470952011972717e+00
6.520000000000064233e+01 -1.097702818914019218e+00
6.530000000000063665e+01 -1.142082327461928282e+00
6.540000000000064517e+01 -1.186609695457632840e+00
6.550000000000065370e+01 -1.231285140911791531e+00
6.560000000000064801e+01 -1.276108882043048620e+00
6.570000000000064233e+01 -1.321081137277275941e+00
6.580000000000065086e+01 -1.366202125246807730e+00
6.590000000000065938e+01 -1.411472064789692338e+00
6.600000000000065370e+01 -1.456891174948966361e+00
6.610000000000064801e+01 -1.502459674971938330e+00
6.620000000000065654e+01 -1.548177784309460181e+00
6.630000000000066507e+01 -1.594045722615204275e+00
6.640000000000065938e+01 -1.640063709744985498e+00
6.650000000000065370e+01 -1.686231965756052276e+00
6.660000000000066223e+01 -1.732550710906392011e+00
6.670000000000067075e+01 -1.779020165654080721e+00
6.680000000000066507e+01 -1.825640550656561389e+00
6.690000000000065938e+01 -1.872412086770035566e+00
6.700000000000066791e+01 -1.919334995048786574e+00
6.710000000000067644e+01 -1.966409496744500718e+00
6.720000000000067075e+01 -2.013635813305647115e+00
6.730000000000066507e+01 -2.061014166376872847e+00
6.740000000000067359e+01 -2.108544777798326830e+00
6.750000000000068212e+01 -2.156227869605047864e+00
6.760000000000067644e+01 -2.204063664026371328e+00
6.770000000000067075e+01 -2.252052383485322551e+00
6.780000000000067928e+01 -2.300194250597988876e+00
6.790000000000068781e+01 -2.348489488172949891e+00
6.800000000000068212e+01 -2.396938319210674351e+00
6.810000000000067644e+01 -2.445540966902957525e+00
6.820000000000068496e+01 -2.494297654632353645e+00
6.830000000000069349e+01 -2.543208605971558178e+00
6.840000000000068781e+01 -2.592274044682910006e+00
6.850000000000068212e+01 -2.641494194717804334e+00
6.860000000000069065e+01 -2.690869280216155790e+00
6.870000000000069917e+01 -2.740399525505840206e+00
6.880000000000069349e+01 -2.790085155102171921e+00
6.890000000000068781e+01 -2.839926393707377539e+00
6.900000000000069633e+01 -2.889923466210079450e+00
6.910000000000070486e+01 -2.940076597684743387e+00
6.920000000000069917e+01 -2.990386013391204134e+00
6.930000000000069349e+01 -3.040851938774145502e+00
6.940000000000070202e+01 -3.091474599462606498e+00
6.950000000000071054e+01 -3.142254221269475067e+00
6.960000000000070486e+01 -3.193191030190996482e+00
6.970000000000069917e+01 -3.244285252406333253e+00
6.980000000000070770e+01 -3.295537114277037105e+00
6.990000000000071623e+01 -3.346946842346589790e+00
7.000000000000071054e+01 -3.398514663339955444e+00
7.010000000000070486e+01 -3.450240804163106301e+00
7.020000000000071338e+01 -3.502125491902581267e+00
7.030000000000072191e+01 -3.554168953825016075e+00
7.040000000000071623e+01 -3.606371417376693866e+00
7.050000000000071054e+01 -3.658733110183157500e+00
7.060000000000071907e+01 -3.711254260048712172e+00
7.070000000000072760e+01 -3.763935094956027072e+00
7.080000000000072191e+01 -3.816775843065708163e+00
7.090000000000071623e+01 -3.869776732715883849e+00
7.100000000000072475e+01 -3.922937992421796860e+00
7.110000000000073328e+01 -3.976259850875365043e+00
7.120000000000072760e+01 -4.029742536944792342e+00
7.130000000000072191e+01 -4.083386279674210861e+00
7.140000000000073044e+01 -4.137191308283230562e+00
7.150000000000073896e+01 -4.191157852166565334e+00
7.160000000000073328e+01 -4.245286140893654192e+00
7.170000000000072760e+01 -4.299576404208286462e+00
7.180000000000073612e+01 -4.354028872028242070e+00
7.190000000000074465e+01 -4.408643774444860775e+00
7.200000000000073896e+01 -4.463421341722722424e+00
7.210000000000073328e+01 -4.518361804299303230e+00
7.220000000000074181e+01 -4.573465392784583194e+00
7.230000000000075033e+01 -4.628732337960684617e+00
7.240000000000074465e+01 -4.684162870781552357e+00
7.250000000000073896e+01 -4.739757222372603884e+00
7.260000000000074749e+01 -4.795515624030390001e+00
7.270000000000075602e+01 -4.851438307222250224e+00
7.280000000000075033e+01 -4.907525503585959292e+00
7.290000000000074465e+01 -4.963777444929465155e+00
7.300000000000075318e+01 -5.020194363230503498e+00
7.310000000000076170e+01 -5.076776490636323302e+00
7.320000000000075602e+01 -5.133524059463314693e+00
7.330000000000075033e+01 -5.190437302196770908e+00
7.340000000000075886e+01 -5.247516451490533917e+00
7.350000000000076739e+01 -5.304761740166693329e+00
7.360000000000076170e+01 -5.362173401215303947e+00
7.370000000000075602e+01 -5.419751667794081129e+00
7.380000000000076454e+01 -5.477496773228114790e+00
7.390000000000077307e+01 -5.535408951009586076e+00
7.400000000000076739e+01 -5.593488434797450282e+00
7.410000000000076170e+01 -5.651735458417220137e+00
7.420000000000077023e+01 -5.710150255860628299e+00
7.430000000000077875e+01 -5.768733061285397312e+00
7.440000000000077307e+01 -5.827484109014926972e+00
7.450000000000076739e+01 -5.886403633538075830e+00
7.460000000000077591e+01 -5.945491869508880534e+00
7.470000000000078444e+01 -6.004749051746294697e+00
7.480000000000077875e+01 -6.064175415233921562e+00
7.490000000000077307e+01 -6.123771195119797284e+00
7.500000000000078160e+01 -6.183536626716115592e+00
7.510000000000079012e+01 -6.243471945498987985e+00
7.520000000000078444e+01 -6.303577387108199481e+00
7.530000000000077875e+01 -6.363853187347006113e+00
7.540000000000078728e+01 -6.424299582181847157e+00
7.550000000000079581e+01 -6.484916807742156841e+00
7.560000000000079012e+01 -6.545705100320091674e+00
7.570000000000078444e+01 -6.606664696370369683e+00
7.580000000000079297e+01 -6.667795832510013732e+00
7.590000000000080149e+01 -6.729098745518109048e+00
7.600000000000079581e+01 -6.790573672335615818e+00
7.610000000000079012e+01 -6.852220850065181779e+00
7.620000000000079865e+01 -6.914040515970893530e+00
7.630000000000080718e+01 -6.976032907478086464e+00
7.640000000000080149e+01 -7.038198262173128050e+00
7.650000000000079581e+01 -7.100536817803252632e+00
7.660000000000080433e+01 -7.163048812276356259e+00
7.670000000000081286e+01 -7.225734483660762209e+00
7.680000000000080718e+01 -7.288594070185062890e+00
7.690000000000080149e+01 -7.351627810237943095e+00
7.700000000000081002e+01 -7.414835942368000588e+00
7.710000000000081855e+01 -7.478218705283521395e+00
7.720000000000081286e+01 -7.541776337852311052e+00
7.730000000000080718e+01 -7.605509079101567593e+00
7.740000000000081570e+01 -7.669417168217682601e+00
7.750000000000082423e+01 -7.733500844546030706e+00
7.760000000000081855e+01 -7.797760347590835472e+00
7.770000000000081286e+01 -7.862195917015027291e+00
7.780000000000082139e+01 -7.926807792640069295e+00
7.790000000000082991e+01 -7.991596214445742419e+00
7.800000000000082423e+01 -8.056561422570059250e+00
7.810000000000081855e+01 -8.121703657309085500e+00
7.820000000000082707e+01 -8.187023159116797899e+00
7.830000000000083560e+01 -8.252520168604892348e+00
7.840000000000082991e+01 -8.318194926542684442e+00
7.850000000000082423e+01 -8.384047673856965588e+00
7.860000000000083276e+01 -8.450078651631837801e+00
7.870000000000084128e+01 -8.516288101108589359e+00
7.880000000000083560e+01 -8.582676263685524276e+00
7.890000000000082991e+01 -8.649243380917901902e+00
7.900000000000083844e+01 -8.715989694517753961e+00
7.910000000000084697e+01 -8.782915446353733557e+00
7.920000000000084128e+01 -8.850020878451044126e+00
7.930000000000083560e+01 -8.917306232991281334e+00
7.940000000000084412e+01 -8.984771752312349591e+00
7.950000000000085265e+01 -9.052417678908270204e+00
7.960000000000084697e+01 -9.120244255429133418e+00
7.970000000000084128e+01 -9.188251724680961630e+00
7.980000000000084981e+01 -9.256440329625592156e+00
7.990000000000085834e+01 -9.324810313380556437e+00
